[00:01:46] [User Authenticator #79/INFO]: UUID of player Zure_Augurk is b3cbf483-584e-4abe-9cf7-4c2ae44e9280
[00:01:46] [Server thread/INFO]: Zure_Augurk[/77.250.237.104:49962] logged in with entity id 190899 at ([world_the_end]1362.9769827527962, 96.0, 727.421878641694)
[00:01:53] [Server thread/INFO]: clubcasper issued server command: /tp clubcasper Zure_Augurk
[00:01:53] [Server thread/INFO]: [clubcasper: Teleported clubcasper to Zure_Augurk]
[00:10:08] [Server thread/INFO]: Zure_Augurk has reached the goal [Sky's the Limit]
[00:12:46] [Server thread/INFO]: Zure_Augurk issued server command: /tp @s -183 65 -689
[00:12:46] [Server thread/INFO]: [Zure_Augurk: Teleported Zure_Augurk to -182.5, 65.0, -688.5]
[00:36:38] [Server thread/INFO]: Zure_Augurk issued server command: /tp @s 767 39 -2285
[00:36:38] [Server thread/INFO]: [Zure_Augurk: Teleported Zure_Augurk to 767.5, 39.0, -2284.5]
[00:36:38] [Server thread/WARN]: Zure_Augurk moved too quickly! 950.7582484246922,-26.0,-1596.1757947915007
[00:36:57] [Server thread/WARN]: Zure_Augurk moved too quickly! -671.3210326444892,9.265900001525878,2283.8646236817785
[00:52:09] [Server thread/INFO]: Zure_Augurk issued server command: /tp @s -183 65 -689
[00:52:09] [Server thread/INFO]: [Zure_Augurk ||||||||||: Teleported Zure_Augurk |||||||||| to -182.5, 65.0, -688.5]
[00:52:57] [Server thread/INFO]: Zure_Augurk issued server command: /setworldspawn
[00:52:57] [Server thread/INFO]: [Zure_Augurk: Set the world spawn point to -157, 77, -596]
[00:55:28] [Server thread/WARN]: clubcasper moved too quickly! -13.47491851269396,0.5,0.3699828266661762
[00:55:28] [Server thread/WARN]: clubcasper moved too quickly! -13.191049695907195,0.5,0.37367982374762865
[00:56:29] [Server thread/INFO]: Zure_Augurk issued server command: /setworldspawn
[00:56:29] [Server thread/INFO]: [Zure_Augurk: Set the world spawn point to -153, 76, -600]
[01:01:33] [Server thread/INFO]: clubcasper lost connection: Disconnected
[01:01:33] [Server thread/INFO]: clubcasper left the game
[01:02:12] [Server thread/INFO]: Zure_Augurk lost connection: Disconnected
[01:02:12] [Server thread/INFO]: Zure_Augurk left the game
[07:01:23] [User Authenticator #80/INFO]: UUID of player Dennie288 is 9446fadc-cec2-4100-9618-63962640dbb8
[07:01:23] [Server thread/INFO]: Dennie288[/217.123.5.232:57592] logged in with entity id 196808 at ([world]102.50591375910318, 83.0, -470.06918423527844)
[07:05:28] [Server thread/WARN]: Dennie288 moved too quickly! 1.4422297199447733,-1.0,10.445605999792406
[07:06:21] [Server thread/INFO]: Dennie288 lost connection: Disconnected
[07:06:21] [Server thread/INFO]: Dennie288 left the game
[11:54:49] [User Authenticator #81/INFO]: UUID of player Zure_Augurk is b3cbf483-584e-4abe-9cf7-4c2ae44e9280
[11:54:49] [Server thread/INFO]: Zure_Augurk[/77.250.237.104:51693] logged in with entity id 197662 at ([world]-182.43419239385852, 67.125, -693.2637488822792)
[11:57:00] [User Authenticator #82/INFO]: UUID of player clubcasper is bfc09260-4fb2-41db-8fac-771946a00010
[11:57:00] [Server thread/INFO]: clubcasper[/24.132.230.215:59675] logged in with entity id 197844 at ([world]-155.71082881812367, 94.0, -721.4762135287068)
[12:12:33] [Server thread/INFO]: Zure_Augurk lost connection: Disconnected
[12:12:33] [Server thread/INFO]: Zure_Augurk left the game
[12:18:10] [User Authenticator #83/INFO]: UUID of player Zure_Augurk is b3cbf483-584e-4abe-9cf7-4c2ae44e9280
[12:18:10] [Server thread/INFO]: Zure_Augurk[/77.250.237.104:51812] logged in with entity id 199663 at ([world]-158.91668340639316, 76.0, -690.6476169539245)
[12:19:25] [Server thread/WARN]: Zure_Augurk moved too quickly! 21.14482073264992,-24.932616190482406,5.071368027343738
[12:20:28] [Server thread/WARN]: Can't keep up! Is the server overloaded? Running 5176ms or 103 ticks behind
[12:20:31] [Server thread/WARN]: Zure_Augurk moved too quickly! -0.6687386762030201,43.269507795279594,15.410305759828418
[12:20:31] [Server thread/WARN]: Zure_Augurk moved too quickly! -0.6468895943178268,43.008744863450204,15.021578139921843
[12:20:35] [Server thread/WARN]: Zure_Augurk moved too quickly! -1.5706908293809647,-14.755573230531411,35.65397347045632
[12:20:41] [Server thread/WARN]: Zure_Augurk moved too quickly! 0.023856245711158408,-4.695794313294584,25.128677120832663
[12:21:03] [Server thread/WARN]: Zure_Augurk moved too quickly! -15.211646965748514,-20.261413129483458,-17.42026426460899
[12:21:12] [Server thread/WARN]: Zure_Augurk moved too quickly! -7.177403578009262,-1.5638482208220807,-17.258397424717458
[12:21:13] [Server thread/WARN]: Zure_Augurk moved too quickly! -6.772002030479598,-1.5425974006859065,-16.493016781021794
[12:21:31] [Server thread/WARN]: Zure_Augurk moved too quickly! -12.916904843754537,-3.4996757356301345,-13.614848856975271
[12:21:31] [Server thread/WARN]: Zure_Augurk moved too quickly! -12.32696196721895,-3.3552437524734273,-12.958548576332646
[12:24:43] [Server thread/WARN]: Can't keep up! Is the server overloaded? Running 5469ms or 109 ticks behind
[12:25:27] [Server thread/WARN]: Can't keep up! Is the server overloaded? Running 5295ms or 105 ticks behind
[12:30:05] [Server thread/WARN]: Zure_Augurk moved too quickly! -27.931889479377332,-2.8147359579867555,-4.07104563108382
[12:30:06] [Server thread/WARN]: Can't keep up! Is the server overloaded? Running 5219ms or 104 ticks behind
[12:30:08] [Server thread/WARN]: Zure_Augurk moved too quickly! -38.8383215748845,9.982517036330322,-1.375267264251633
[12:30:11] [Server thread/WARN]: Zure_Augurk moved too quickly! -19.484004559282766,21.85734439200074,1.7455661653046235
[12:30:14] [Server thread/WARN]: Zure_Augurk moved too quickly! -30.368457779190067,8.271175449642257,-2.3441135107423037
[12:30:17] [Server thread/WARN]: Zure_Augurk moved too quickly! -23.016943031355822,19.98031606081136,5.723590720108476
[12:30:17] [Server thread/WARN]: Zure_Augurk moved too quickly! -21.965988609329997,18.711519333268086,5.4622362236861335
[12:30:21] [Server thread/WARN]: Zure_Augurk moved too quickly! -22.439139088035063,31.408558390975003,5.697848794971748
[12:30:24] [Server thread/WARN]: Zure_Augurk moved too quickly! -1.4052489750156383,-10.613846135682678,15.009970367478871
[12:30:45] [Server thread/WARN]: Zure_Augurk moved too quickly! -26.441732283220517,25.065874139854046,-0.017047809007266324
[12:30:48] [Server thread/WARN]: Can't keep up! Is the server overloaded? Running 11319ms or 226 ticks behind
[12:31:03] [Server thread/WARN]: Zure_Augurk moved too quickly! -25.366013657313943,-4.260173703653848,0.011663637105613134
[12:31:17] [Server thread/WARN]: Zure_Augurk moved too quickly! -30.721603079906345,-5.434116320532851,0.21137201268146555
[12:31:17] [Server thread/WARN]: Zure_Augurk moved too quickly! -29.452486887581472,-5.260861954230521,0.19407903347232036
[12:37:51] [Server thread/WARN]: Zure_Augurk moved too quickly! 31.157907188097624,-1.4032148416437167,0.4425389296010849
[12:37:52] [Server thread/WARN]: Can't keep up! Is the server overloaded? Running 5520ms or 110 ticks behind
[12:38:56] [Server thread/WARN]: Can't keep up! Is the server overloaded? Running 34208ms or 684 ticks behind
[12:39:22] [Server thread/INFO]: clubcasper lost connection: Disconnected
[12:39:22] [Server thread/INFO]: clubcasper left the game
[12:39:24] [User Authenticator #84/INFO]: UUID of player clubcasper is bfc09260-4fb2-41db-8fac-771946a00010
[12:39:25] [Server thread/INFO]: clubcasper[/24.132.230.215:59735] logged in with entity id 206345 at ([world]-136.98074532430206, 74.02442408821369, -724.0384174033497)
[12:40:31] [Server thread/WARN]: Zure_Augurk moved too quickly! 47.427802735717705,-4.921727139811736,-0.6311501588182011
[12:40:31] [Server thread/WARN]: clubcasper moved too quickly! 9.622462587996722,-0.7531999805212024,3.7016546123085163
[12:40:31] [Server thread/WARN]: Can't keep up! Is the server overloaded? Running 6467ms or 129 ticks behind
[12:40:38] [Server thread/WARN]: Zure_Augurk moved too quickly! 29.324745467144794,-4.590838480048745,0.021922412687445103
[12:41:11] [Server thread/INFO]: clubcasper lost connection: Disconnected
[12:41:11] [Server thread/INFO]: clubcasper left the game
[12:41:16] [Server thread/WARN]: Zure_Augurk moved too quickly! 9.800969903039231,2.495200877005928,-0.19509864326684578
[12:41:16] [Server thread/WARN]: Can't keep up! Is the server overloaded? Running 6561ms or 131 ticks behind
[12:41:35] [Server thread/WARN]: Zure_Augurk moved too quickly! 20.391005670407367,1.3139072671742014,-0.026339398952728743
[12:41:49] [Server thread/WARN]: Zure_Augurk moved too quickly! 32.4734082109228,44.33760963084191,1.5021653681902194
[12:41:55] [Server thread/WARN]: Zure_Augurk moved too quickly! 19.335916680051014,-4.643780579008649,-0.10279822284977058
[12:41:56] [Server thread/WARN]: Can't keep up! Is the server overloaded? Running 5147ms or 102 ticks behind
[12:43:13] [Server thread/WARN]: Zure_Augurk moved too quickly! 21.017483378745965,15.731217648495374,0.5439220207850042
[12:43:22] [Server thread/WARN]: Zure_Augurk moved too quickly! 17.31798712697855,-3.8403321565501756,0.0075756527546104735
[12:43:44] [Server thread/WARN]: Zure_Augurk moved too quickly! 17.767286296976636,-3.1308986528963487,0.03223577600391536
[12:43:55] [Server thread/WARN]: Zure_Augurk moved too quickly! 24.815804848415155,2.4769694431818294,0.6726200164910949
[12:44:01] [Server thread/WARN]: Zure_Augurk moved too quickly! 29.10708057676311,58.49036437871139,0.6601245025866689
[12:44:01] [Server thread/WARN]: Zure_Augurk moved too quickly! 28.749195424704794,57.78525362883987,0.6487543274986507
[12:44:45] [Server thread/WARN]: Zure_Augurk moved too quickly! 25.014292400344857,-2.7369137974655615,0.37186423461427864
[12:44:50] [Server thread/WARN]: Zure_Augurk moved too quickly! 23.62174188595236,7.078478027349689,0.6214014832223853
[12:44:50] [Server thread/WARN]: Zure_Augurk moved too quickly! 22.419033583712917,6.329644265334565,0.5868659562768954
[12:44:52] [Server thread/WARN]: Zure_Augurk moved too quickly! 23.503416003094117,10.410782218439081,0.9967418616806185
[12:44:52] [Server thread/WARN]: Zure_Augurk moved too quickly! 22.386287078183614,9.566797297322765,0.9565238672224154
[12:44:54] [Server thread/WARN]: Zure_Augurk moved too quickly! 20.008830422518713,1.9806474130968184,0.7147509283259268
[12:44:54] [Server thread/WARN]: Zure_Augurk moved too quickly! 18.746379987772798,1.788754362515391,0.7092206795962426
[12:44:54] [Server thread/WARN]: Can't keep up! Is the server overloaded? Running 5124ms or 102 ticks behind
[12:44:55] [Server thread/WARN]: Zure_Augurk moved too quickly! 17.753532657744927,-4.040429532716416,-1.8376388988655066
[12:44:59] [Server thread/WARN]: Zure_Augurk moved too quickly! 21.193668335972234,-3.5920416344723094,-0.4435135087577464
[12:45:05] [Server thread/WARN]: Zure_Augurk moved too quickly! 23.65782608423524,12.938479163185079,-0.22630923009867843
[12:45:21] [Server thread/WARN]: Zure_Augurk moved too quickly! 38.63147454879345,-9.832960184024898,-1.0510173386209232
[12:45:21] [Server thread/WARN]: Zure_Augurk moved too quickly! 36.82391492916031,-9.435472847335006,-1.0017988956122679
[12:45:21] [Server thread/WARN]: Zure_Augurk moved too quickly! 36.82391492916031,-9.435472847335006,-1.0017988956122679
[12:45:27] [Server thread/WARN]: Zure_Augurk moved too quickly! 36.5796765210016,-4.557572754396233,1.92203553823623
[12:45:34] [Server thread/WARN]: Zure_Augurk moved too quickly! 41.43296294896163,-6.552506571319995,1.036287400408355
[12:45:35] [Server thread/WARN]: Can't keep up! Is the server overloaded? Running 11508ms or 230 ticks behind
[12:46:00] [Server thread/WARN]: Zure_Augurk moved too quickly! 48.0135880905741,-57.817111184747404,-2.156492765329517
[12:46:02] [Server thread/WARN]: Zure_Augurk moved too quickly! 18.54813964439154,-14.545820705078427,-2.728482231857612
[12:46:12] [Server thread/WARN]: Zure_Augurk moved too quickly! 35.803897714411505,-14.698896406885936,8.677510882994355
[12:46:12] [Server thread/WARN]: Zure_Augurk moved too quickly! 35.19114631227512,-14.431007795350482,8.921983923363427
[12:46:21] [Server thread/WARN]: Can't keep up! Is the server overloaded? Running 15150ms or 303 ticks behind
[12:49:42] [Server thread/WARN]: Zure_Augurk moved too quickly! 22.20463297499191,-4.216957862538649,13.728595260134753
[12:50:13] [Server thread/WARN]: Zure_Augurk moved too quickly! 16.86998871642936,2.819771582630466,3.9276901311443737
[12:50:34] [Server thread/WARN]: Zure_Augurk moved too quickly! 19.867695954233568,2.0650283920476653,-1.8863480367812144
[12:51:02] [Server thread/WARN]: Zure_Augurk moved too quickly! 16.347015693305366,-6.735170372045204,3.9674628579345494
[12:51:16] [Server thread/WARN]: Zure_Augurk moved too quickly! 38.38695818886481,-7.222135605019034,-14.646363336947502
[12:51:57] [Server thread/INFO]: Zure_Augurk lost connection: Disconnected
[12:51:57] [Server thread/INFO]: Zure_Augurk left the game
[12:53:09] [User Authenticator #85/INFO]: UUID of player Zure_Augurk is b3cbf483-584e-4abe-9cf7-4c2ae44e9280
[12:53:10] [Server thread/INFO]: Zure_Augurk[/77.250.237.104:51883] logged in with entity id 312527 at ([world]5930.959200285663, 93.0, 180.02923674058573)
[12:53:26] [Server thread/WARN]: Can't keep up! Is the server overloaded? Running 5240ms or 104 ticks behind
[12:54:09] [Server thread/WARN]: Zure_Augurk moved too quickly! 35.518856897981095,-5.320948638103772,-0.0815031904213015
[12:54:09] [Server thread/WARN]: Zure_Augurk moved too quickly! 34.65242827493694,-5.218064054443232,-0.08144093048520062
[12:54:09] [Server thread/WARN]: Can't keep up! Is the server overloaded? Running 5287ms or 105 ticks behind
[12:54:17] [Server thread/WARN]: Zure_Augurk moved too quickly! 18.584173973824363,-1.8825552349754702,-0.005811009902515707
[12:54:24] [Server thread/WARN]: Zure_Augurk moved too quickly! 19.68902771910598,-2.3919503310447254,0.044133313893297554
[12:54:29] [Server thread/WARN]: Zure_Augurk moved too quickly! 19.270427319824194,-3.383113061126778,0.03001733548259722
[12:54:29] [Server thread/WARN]: Zure_Augurk moved too quickly! 18.36734095690099,-3.2412534816082825,0.028861958841275737
[12:54:39] [Server thread/WARN]: Zure_Augurk moved too quickly! 17.989108263457638,5.795273960743415,-0.014724425948003272
[12:54:45] [Server thread/WARN]: Can't keep up! Is the server overloaded? Running 5113ms or 102 ticks behind
[12:55:00] [Server thread/WARN]: Zure_Augurk moved too quickly! 29.329248579159866,-4.813995043899425,0.3975783592502182
[12:55:05] [Server thread/WARN]: Zure_Augurk moved too quickly! -7.892868112135147,-3.7773728280432692,17.367484081547246
[13:00:08] [Server thread/WARN]: Can't keep up! Is the server overloaded? Running 7923ms or 158 ticks behind
[13:00:53] [Server thread/WARN]: Can't keep up! Is the server overloaded? Running 15630ms or 312 ticks behind
[13:01:51] [Server thread/INFO]: Zure_Augurk has made the advancement [Tactical Fishing]
[13:03:11] [Server thread/WARN]: Zure_Augurk moved too quickly! 93.47802759190563,12.063904122539583,-13.115009303693803
[13:03:40] [Server thread/WARN]: Zure_Augurk moved too quickly! 17.157502418020158,-3.0581444562981375,1.692451486324316
[13:03:43] [Server thread/WARN]: Zure_Augurk moved too quickly! 15.439221705992168,13.033851495973245,2.6280183907061456
[13:03:49] [Server thread/WARN]: Can't keep up! Is the server overloaded? Running 5576ms or 111 ticks behind
[13:03:54] [Server thread/WARN]: Zure_Augurk moved too quickly! 17.337634113138847,-3.6918140058853623,-0.001733024802543781
[13:04:05] [Server thread/WARN]: Zure_Augurk moved too quickly! 32.826682121416525,-3.8732900377391672,-0.9758840272440317
[13:04:05] [Server thread/WARN]: Zure_Augurk moved too quickly! 31.536361909154948,-3.7282209509367448,-0.9639969493079548
[13:04:42] [Server thread/WARN]: Can't keep up! Is the server overloaded? Running 5023ms or 100 ticks behind
[13:10:47] [Server thread/WARN]: Zure_Augurk moved too quickly! 49.73695716832481,23.060767424636254,2.918124741055408
[13:10:49] [Server thread/WARN]: Zure_Augurk moved too quickly! 28.922326868641903,3.167697503125339,2.102727882308187
[13:10:49] [Server thread/WARN]: Can't keep up! Is the server overloaded? Running 5145ms or 102 ticks behind
[13:10:51] [Server thread/WARN]: Zure_Augurk moved too quickly! 39.36376159248721,10.330666103478222,2.8472922329167147
[13:10:51] [Server thread/WARN]: Zure_Augurk moved too quickly! 38.1146458725234,9.90550299533183,2.7544374277939454
[13:10:53] [Server thread/WARN]: Zure_Augurk moved too quickly! 38.830077482474735,10.24995645706133,2.9129425794849197
[13:10:55] [Server thread/WARN]: Zure_Augurk moved too quickly! 37.774514466074834,-1.6440572187358953,2.7738270250794272
[13:10:56] [Server thread/WARN]: Zure_Augurk moved too quickly! 33.71415516505476,-2.5552021084529883,0.18283547257070154
[13:10:56] [Server thread/WARN]: Zure_Augurk moved too quickly! 32.041240719887355,-2.419168618664571,0.14827934080939542
[13:10:57] [Server thread/WARN]: Zure_Augurk moved too quickly! 39.70593218080285,-2.3251754739793,3.0920688937687686
[13:10:57] [Server thread/WARN]: Zure_Augurk moved too quickly! 38.02822129044034,-2.155875663956351,2.932598791518572
[13:10:59] [Server thread/WARN]: Zure_Augurk moved too quickly! 35.29452828463218,-3.618514105401374,3.3890345886947273
[13:10:59] [Server thread/WARN]: Zure_Augurk moved too quickly! 33.71716697765987,-3.4728050402644897,3.2360234432033934
[13:11:01] [Server thread/WARN]: Zure_Augurk moved too quickly! 39.44812958999319,-3.8284401182311,3.8318463130104874
[13:11:04] [Server thread/WARN]: Zure_Augurk moved too quickly! 50.89493882614261,-25.679221666695156,4.458800993998622
[13:11:06] [Server thread/WARN]: Zure_Augurk moved too quickly! 40.84454426441698,-4.1989985858390355,6.496060109742658
[13:11:06] [Server thread/WARN]: Zure_Augurk moved too quickly! 39.437130800455634,-4.118915362936065,6.276458148196056
[13:11:08] [Server thread/WARN]: Zure_Augurk moved too quickly! 40.826212367177504,-5.539677913125104,6.105926009986092
[13:11:10] [Server thread/WARN]: Zure_Augurk moved too quickly! 17.859099845505625,-38.3439354144849,3.7017430252788586
[13:11:10] [Server thread/WARN]: Zure_Augurk moved too quickly! 16.28912892268272,-37.96412375549609,3.26941104828056
[13:11:11] [Server thread/WARN]: Zure_Augurk moved too quickly! 29.891570362105995,-18.528810334383238,5.296070338503185
[13:11:11] [Server thread/WARN]: Zure_Augurk moved too quickly! 28.235886394430054,-18.059582558951064,5.107170781617185
[13:11:13] [Server thread/WARN]: Zure_Augurk moved too quickly! 44.60440157349694,-8.59631146328043,5.9476498048651365
[13:11:15] [Server thread/WARN]: Zure_Augurk moved wrongly!
[13:11:28] [Server thread/WARN]: Zure_Augurk moved too quickly! -18.82622500200705,18.255684508022192,-18.19981629309612
[13:11:38] [Server thread/WARN]: Zure_Augurk moved too quickly! 35.440047250926,5.7447698400433325,3.914760665189192
[13:11:41] [Server thread/WARN]: Zure_Augurk moved too quickly! 18.766044664225774,-5.183538554773463,-9.194153257907828
[13:11:50] [Server thread/WARN]: Zure_Augurk moved too quickly! 40.69254822236144,18.048349550201223,1.0772645390401863
[13:11:55] [Server thread/WARN]: Zure_Augurk moved too quickly! 31.62750633271935,-5.0107667942023255,-3.7865826826924547
[13:11:55] [Server thread/WARN]: Zure_Augurk moved too quickly! 30.841277229719708,-4.826838232351818,-4.3340838076139505
[13:12:00] [Server thread/WARN]: Can't keep up! Is the server overloaded? Running 41832ms or 836 ticks behind
[13:12:02] [Server thread/WARN]: Zure_Augurk moved too quickly! 25.46586196845601,20.47026297840405,-3.669281430753273
[13:12:06] [Server thread/WARN]: Zure_Augurk moved too quickly! 29.492523640365107,29.831668667362692,0.9151003467548549
[13:12:12] [Server thread/WARN]: Zure_Augurk moved too quickly! 20.5890768508998,-0.013831380835242157,0.03487146271186248
[13:12:19] [Server thread/WARN]: Zure_Augurk moved too quickly! 26.145878670924503,10.836576581238745,0.0017608954848640224
[13:12:19] [Server thread/WARN]: Zure_Augurk moved too quickly! 25.68353821356868,10.623127197771552,0.0017297573757275586
[13:12:43] [Server thread/WARN]: Can't keep up! Is the server overloaded? Running 12379ms or 247 ticks behind
[13:12:45] [Server thread/WARN]: Zure_Augurk moved too quickly! 17.27470669149625,-2.8812913006748033,-0.0070607401388258495
[13:13:07] [Server thread/WARN]: Zure_Augurk moved too quickly! 19.96807391472794,-3.2577717530662937,-0.00813821563303918
[13:13:15] [Server thread/WARN]: Zure_Augurk moved too quickly! 13.434673793193724,24.4397619959081,0.0027584535863240944
[13:13:34] [Server thread/WARN]: Zure_Augurk moved too quickly! 34.28233458496288,25.547377176932983,16.368939051476758
[13:13:36] [Server thread/WARN]: Can't keep up! Is the server overloaded? Running 6976ms or 139 ticks behind
[13:13:38] [Server thread/WARN]: Zure_Augurk moved too quickly! 18.67127238511057,-3.9379812909499208,8.338697045933479
[13:13:38] [Server thread/WARN]: Zure_Augurk moved too quickly! 17.896402326365205,-3.792935727211642,8.000913695404911
[13:13:38] [Server thread/WARN]: Zure_Augurk moved too quickly! 17.896402326365205,-3.792935727211642,8.000913695404911
[13:13:47] [Server thread/WARN]: Zure_Augurk moved too quickly! 36.16835354067189,-5.2762900834337785,15.386604923128424
[13:13:47] [Server thread/WARN]: Zure_Augurk moved too quickly! 35.134315297285866,-5.134147298590918,14.9467456391837
[13:13:53] [Server thread/WARN]: Zure_Augurk moved too quickly! 22.809748074261734,-3.5146111797037065,9.99297759468488
[13:14:00] [Server thread/WARN]: Zure_Augurk moved too quickly! 21.024721859579586,5.235839887757535,-3.192298456396747
[13:14:05] [Server thread/WARN]: Zure_Augurk moved too quickly! 45.57424302100844,-1.457410466776551,-4.766629620959778
[13:14:05] [Server thread/WARN]: Zure_Augurk moved too quickly! 44.45621687353923,-1.2736655351207986,-4.739881936729184
[13:14:08] [Server thread/WARN]: Zure_Augurk moved too quickly! 15.069781255671842,-8.804855581915405,1.6970832878158042
[13:14:13] [Server thread/WARN]: Zure_Augurk moved too quickly! 23.655187515880243,-11.441632998381365,5.7030820391618064
[13:14:20] [Server thread/WARN]: Zure_Augurk moved too quickly! 46.80020559568584,10.291490150866522,-0.49128983351812217
[13:14:24] [Server thread/WARN]: Zure_Augurk moved too quickly! 19.81130817327903,-1.086497550101015,2.365590128943591
[13:14:29] [Server thread/WARN]: Zure_Augurk moved too quickly! 19.34851972432807,7.095641028469657,0.237786384716288
[13:14:30] [Server thread/WARN]: Can't keep up! Is the server overloaded? Running 24042ms or 480 ticks behind
[13:14:52] [Server thread/WARN]: Zure_Augurk moved too quickly! 17.331484101219758,1.1617552605058137,0.28249097663566825
[13:15:03] [Server thread/WARN]: Zure_Augurk moved too quickly! 17.36372546981147,-0.7335684034749193,-0.1723094951311026
[13:15:06] [Server thread/WARN]: Can't keep up! Is the server overloaded? Running 6654ms or 133 ticks behind
[13:15:28] [Server thread/WARN]: Zure_Augurk moved too quickly! 17.973784800242356,-1.0709452694874386,1.1440102956881208
[13:15:37] [Server thread/WARN]: Zure_Augurk moved too quickly! 23.021033784449173,-3.2291918489360114,0.023946779488491998
[13:15:45] [Server thread/WARN]: Zure_Augurk moved too quickly! 20.91128399786976,7.759651363605357,0.9315638144056102
[13:15:45] [Server thread/WARN]: Can't keep up! Is the server overloaded? Running 8746ms or 174 ticks behind
[13:15:53] [Server thread/WARN]: Zure_Augurk moved too quickly! 17.53000890617477,-1.6335824907431657,0.28194980190773755
[13:15:58] [Server thread/WARN]: Zure_Augurk moved too quickly! 17.677562903711078,-0.5442291142944384,0.6033768835108617
[13:16:01] [Server thread/WARN]: Zure_Augurk moved too quickly! 23.411567820079654,11.115419333382476,0.6868717760105092
[13:16:01] [Server thread/WARN]: Zure_Augurk moved too quickly! 22.632530772061727,10.580692214786083,0.6851491863007162
[13:16:01] [Server thread/WARN]: Zure_Augurk moved too quickly! 22.632530772061727,10.580692214786083,0.6851491863007162
[13:16:06] [Server thread/WARN]: Zure_Augurk moved too quickly! 25.79307391864313,0.9539820544469819,-0.015818972343327076
[13:16:08] [Server thread/WARN]: Zure_Augurk moved too quickly! 24.452665521939707,6.6735897114475335,0.024258920809320017
[13:16:12] [Server thread/WARN]: Zure_Augurk moved too quickly! 15.231777582759605,-8.860414977802023,0.02315794407625127
[13:16:31] [Server thread/WARN]: Can't keep up! Is the server overloaded? Running 16296ms or 325 ticks behind
[13:16:36] [Server thread/WARN]: Zure_Augurk moved too quickly! 12.775342421278765,-0.5292232112077642,-3.442812699089278
[13:16:42] [Server thread/WARN]: Zure_Augurk moved too quickly! 35.16884327549087,15.978305902418924,0.2841487931330602
[13:16:42] [Server thread/WARN]: Zure_Augurk moved too quickly! 34.457805525236836,15.417580432029922,0.2785455125673377
[13:16:58] [Server thread/WARN]: Zure_Augurk moved too quickly! 29.432081002612904,1.6432092563888574,0.006716047440738837
[13:17:05] [Server thread/WARN]: Zure_Augurk moved too quickly! 14.23067240481032,10.477150785843236,0.03181094731948342
[13:17:05] [Server thread/WARN]: Zure_Augurk moved too quickly! 13.935133934704936,10.399204944803813,0.031046145058969188
[13:17:29] [Server thread/WARN]: Can't keep up! Is the server overloaded? Running 27957ms or 559 ticks behind
[13:18:02] [Server thread/WARN]: Zure_Augurk moved too quickly! 9.983634883892591,1.314703340253729,0.16948728894971055
[13:18:09] [Server thread/WARN]: Can't keep up! Is the server overloaded? Running 7389ms or 147 ticks behind
[13:18:36] [Server thread/INFO]: Stopping the server
[13:18:36] [Server thread/INFO]: Stopping server
[13:18:36] [Server thread/INFO]: [ServerRestorer] Disabling ServerRestorer v1.0.20
[13:18:36] [Server thread/INFO]: [GetSpawners] Disabling GetSpawners v1.27
[13:18:36] [Server thread/INFO]: [DeathCount] Disabling DeathCount v1.0
[13:18:36] [Server thread/INFO]: [HealthBar] Disabling HealthBar v1.8.3
[13:18:36] [Server thread/INFO]: HealthBar disabled, all the health bars have been removed.
[13:18:36] [Server thread/INFO]: [WoodCutter] Disabling WoodCutter v2.0.6
[13:18:36] [Server thread/INFO]: [0;30;1m[[0;31;1mWood[0;37;22mCutter[0;30;1m] [0;37;22mPlugin has been disabled![m
[13:18:36] [Server thread/INFO]: [dynmap] Disabling dynmap v3.0-beta-4-213
[13:18:36] [Server thread/INFO]: [dynmap] Unloaded 11 components.
[13:18:36] [Server thread/INFO]: [dynmap] Stopping map renderer...
[13:18:37] [Server thread/INFO]: [dynmap] Saved 97887 pending tile renders in world 'world'
[13:18:37] [Server thread/INFO]: [dynmap] Disabled
[13:18:37] [Server thread/INFO]: Saving players
[13:18:37] [Server thread/INFO]: Zure_Augurk lost connection: Server closed
[13:18:37] [Server thread/INFO]: Zure_Augurk left the game
[13:18:37] [Server thread/INFO]: Saving worlds
[13:18:37] [Server thread/INFO]: Saving chunks for level 'world'/minecraft:overworld
[13:18:49] [Server thread/ERROR]: Cound not schedule mailbox
java.util.concurrent.RejectedExecutionException: null
	at java.util.concurrent.ForkJoinPool.externalPush(ForkJoinPool.java:1880) ~[?:?]
	at java.util.concurrent.ForkJoinPool.externalSubmit(ForkJoinPool.java:1921) ~[?:?]
	at java.util.concurrent.ForkJoinPool.execute(ForkJoinPool.java:2453) ~[?:?]
	at net.minecraft.server.v1_14_R1.ThreadedMailbox.f(SourceFile:112) ~[spigot.jar:git-Spigot-5e4e7f3-2349feb]
	at net.minecraft.server.v1_14_R1.ThreadedMailbox.a(SourceFile:101) ~[spigot.jar:git-Spigot-5e4e7f3-2349feb]
	at net.minecraft.server.v1_14_R1.ChunkTaskQueueSorter.a(SourceFile:124) ~[spigot.jar:git-Spigot-5e4e7f3-2349feb]
	at net.minecraft.server.v1_14_R1.ChunkTaskQueueSorter.a(SourceFile:90) ~[spigot.jar:git-Spigot-5e4e7f3-2349feb]
	at net.minecraft.server.v1_14_R1.Mailbox$1.a(SourceFile:32) ~[spigot.jar:git-Spigot-5e4e7f3-2349feb]
	at net.minecraft.server.v1_14_R1.LightEngineThreaded.a(SourceFile:105) ~[spigot.jar:git-Spigot-5e4e7f3-2349feb]
	at net.minecraft.server.v1_14_R1.LightEngineThreaded.a(SourceFile:67) ~[spigot.jar:git-Spigot-5e4e7f3-2349feb]
	at net.minecraft.server.v1_14_R1.PlayerChunkMap.lambda$15(PlayerChunkMap.java:371) ~[spigot.jar:git-Spigot-5e4e7f3-2349feb]
	at java.util.concurrent.CompletableFuture$UniAccept.tryFire(CompletableFuture.java:714) [?:?]
	at java.util.concurrent.CompletableFuture$Completion.run(CompletableFuture.java:478) [?:?]
	at net.minecraft.server.v1_14_R1.PlayerChunkMap.b(PlayerChunkMap.java:346) [spigot.jar:git-Spigot-5e4e7f3-2349feb]
	at net.minecraft.server.v1_14_R1.PlayerChunkMap.save(PlayerChunkMap.java:285) [spigot.jar:git-Spigot-5e4e7f3-2349feb]
	at net.minecraft.server.v1_14_R1.ChunkProviderServer.save(ChunkProviderServer.java:252) [spigot.jar:git-Spigot-5e4e7f3-2349feb]
	at net.minecraft.server.v1_14_R1.WorldServer.save(WorldServer.java:759) [spigot.jar:git-Spigot-5e4e7f3-2349feb]
	at net.minecraft.server.v1_14_R1.MinecraftServer.saveChunks(MinecraftServer.java:635) [spigot.jar:git-Spigot-5e4e7f3-2349feb]
	at net.minecraft.server.v1_14_R1.MinecraftServer.stop(MinecraftServer.java:705) [spigot.jar:git-Spigot-5e4e7f3-2349feb]
	at net.minecraft.server.v1_14_R1.DedicatedServer.stop(DedicatedServer.java:681) [spigot.jar:git-Spigot-5e4e7f3-2349feb]
	at net.minecraft.server.v1_14_R1.MinecraftServer.run(MinecraftServer.java:845) [spigot.jar:git-Spigot-5e4e7f3-2349feb]
	at java.lang.Thread.run(Thread.java:834) [?:?]
[13:18:49] [Server thread/ERROR]: Cound not schedule mailbox
java.util.concurrent.RejectedExecutionException: null
	at java.util.concurrent.ForkJoinPool.externalPush(ForkJoinPool.java:1880) ~[?:?]
	at java.util.concurrent.ForkJoinPool.externalSubmit(ForkJoinPool.java:1921) ~[?:?]
	at java.util.concurrent.ForkJoinPool.execute(ForkJoinPool.java:2453) ~[?:?]
	at net.minecraft.server.v1_14_R1.ThreadedMailbox.f(SourceFile:112) ~[spigot.jar:git-Spigot-5e4e7f3-2349feb]
	at net.minecraft.server.v1_14_R1.ThreadedMailbox.a(SourceFile:101) ~[spigot.jar:git-Spigot-5e4e7f3-2349feb]
	at net.minecraft.server.v1_14_R1.LightEngineThreaded.queueUpdate(SourceFile:154) ~[spigot.jar:git-Spigot-5e4e7f3-2349feb]
	at net.minecraft.server.v1_14_R1.PlayerChunkMap.lambda$15(PlayerChunkMap.java:372) ~[spigot.jar:git-Spigot-5e4e7f3-2349feb]
	at java.util.concurrent.CompletableFuture$UniAccept.tryFire(CompletableFuture.java:714) [?:?]
	at java.util.concurrent.CompletableFuture$Completion.run(CompletableFuture.java:478) [?:?]
	at net.minecraft.server.v1_14_R1.PlayerChunkMap.b(PlayerChunkMap.java:346) [spigot.jar:git-Spigot-5e4e7f3-2349feb]
	at net.minecraft.server.v1_14_R1.PlayerChunkMap.save(PlayerChunkMap.java:285) [spigot.jar:git-Spigot-5e4e7f3-2349feb]
	at net.minecraft.server.v1_14_R1.ChunkProviderServer.save(ChunkProviderServer.java:252) [spigot.jar:git-Spigot-5e4e7f3-2349feb]
	at net.minecraft.server.v1_14_R1.WorldServer.save(WorldServer.java:759) [spigot.jar:git-Spigot-5e4e7f3-2349feb]
	at net.minecraft.server.v1_14_R1.MinecraftServer.saveChunks(MinecraftServer.java:635) [spigot.jar:git-Spigot-5e4e7f3-2349feb]
	at net.minecraft.server.v1_14_R1.MinecraftServer.stop(MinecraftServer.java:705) [spigot.jar:git-Spigot-5e4e7f3-2349feb]
	at net.minecraft.server.v1_14_R1.DedicatedServer.stop(DedicatedServer.java:681) [spigot.jar:git-Spigot-5e4e7f3-2349feb]
	at net.minecraft.server.v1_14_R1.MinecraftServer.run(MinecraftServer.java:845) [spigot.jar:git-Spigot-5e4e7f3-2349feb]
	at java.lang.Thread.run(Thread.java:834) [?:?]
